<svg width="15" height="15" viewBox="0 0 15 15" fill="none" xmlns="http://www.w3.org/2000/svg">
<path d="M5.48421 6.05549H0.571269C0.261149 6.05549 -3.98489e-06 5.79433 -3.98489e-06 5.48421C-3.98489e-06 2.44831 2.46463 -3.98489e-06 5.48421 -3.98489e-06C5.79433 -3.98489e-06 6.05549 0.261149 6.05549 0.571269V5.48421C6.05549 5.79433 5.79433 6.05549 5.48421 6.05549ZM1.1752 4.89662H4.91294V1.15886C2.97061 1.42001 1.42003 2.97062 1.1752 4.89662ZM7.99782 15C4.12948 15 0.995639 11.9967 0.995639 8.29163C0.995639 7.93254 1.28944 7.63874 1.64852 7.63874H7.63874V1.64852C7.63874 1.28944 7.93254 0.995639 8.29163 0.995639C11.9315 0.995639 15 4.21109 15 7.99782C15 11.8498 11.8498 15 7.99782 15ZM2.35038 8.94451C2.69314 11.605 5.09249 13.6942 7.99782 13.6942C11.1317 13.6942 13.6942 11.148 13.6942 7.99782C13.6942 5.14145 11.5887 2.70947 8.94451 2.35038V8.29163C8.94451 8.65071 8.65071 8.94451 8.29163 8.94451H2.35038Z" fill="white"/>
</svg>
