<svg width="15" height="16" viewBox="0 0 15 16" fill="none" xmlns="http://www.w3.org/2000/svg">
<path d="M13.9361 5.35709C13.863 4.64518 13.2413 4.09344 12.4917 4.09344H11.1569V3.77308C11.1569 1.69076 9.58441 0 7.53656 0H7.46344C5.43387 0 3.84312 1.69076 3.84312 3.77308V4.09344H2.50835C1.75869 4.09344 1.15532 4.64518 1.0639 5.35709L0.00339343 15.2169C-0.014891 15.4127 0.0399622 15.6263 0.186237 15.7687C0.332513 15.911 0.515357 16 0.73477 16H14.2652C14.4664 16 14.6675 15.911 14.8138 15.7687C14.96 15.6263 15.0149 15.4127 14.9966 15.2169L13.9361 5.35709ZM5.30587 3.77308C5.30587 2.47385 6.23838 1.42381 7.46344 1.42381H7.53656C8.76161 1.42381 9.69413 2.47385 9.69413 3.77308V4.09344H5.30587V3.77308ZM1.53929 14.594L2.50835 5.51725H12.4551L13.4242 14.594H1.53929Z" fill="white"/>
</svg>
