<svg width="19" height="13" viewBox="0 0 19 13" fill="none" xmlns="http://www.w3.org/2000/svg">
<path d="M18.42 1.47998C18.42 0.659981 17.76 0 16.94 0H1.48C0.660001 0 -1.2207e-06 0.659981 -1.2207e-06 1.47998V10.54C-1.2207e-06 11.36 0.660001 12.02 1.48 12.02H16.94C17.76 12.02 18.42 11.36 18.42 10.54V1.47998ZM16.82 1.6V3H1.62V1.6H16.82ZM1.62 10.4V5.4H16.82V10.4H1.62ZM15.32 7.8C15.32 8.24 14.96 8.6 14.52 8.6H10.72C10.28 8.6 9.92 8.24 9.92 7.8C9.92 7.36 10.28 7 10.72 7H14.52C14.96 7 15.32 7.36 15.32 7.8Z" fill="white"/>
</svg>
